<?xml version="1.0" ?>

<robot name="Ballbot">

   <link name="ground">
        <inertial>
            <origin xyz="0.0 0.0 0.0" rpy="0 0 0" />
            <mass value="0.1" />
            <inertia ixx="0.0000001" iyy="0.0000001" izz="0.0000001" ixy="0" ixz="0" iyz="0"  />
        </inertial>

    </link>

    <link name="link1">
        <inertial>
            <origin xyz="0 0.0 0.0" rpy="0 0 0" />
            <mass value="0.0000001" />
            <inertia ixx="0.0000001" iyy="0.0000001" izz="0.0000001" ixy="0" ixz="0" iyz="0"  />
        </inertial>
        

        
    </link>
    
    <link name="link2">
        <inertial>
            <origin xyz="0.0 0.0 0.0" rpy="0 0 0" />
            <mass value="0.0000001" />
            <inertia ixx="0.0000001" iyy="0.0000001" izz="0.0000001" ixy="0" ixz="0" iyz="0" />
        </inertial>
    </link>
    
    <link name="link3">
        <inertial>
            <origin xyz="0.0 0.0 0.0" rpy="0 0 0" />
            <mass value="0.1"/>
            <inertia ixx="0.0000001" iyy="0.0000001" izz="0.0000001" ixy="0" ixz="0" iyz="0"  />
        </inertial>
        
        <visual>
            <origin xyz="0.0 0.0 0.0" rpy="0 0 0" />
            <geometry>
                <sphere radius=".01" />
            </geometry>
            <material name="material_magenta">
                <color rgba="70 0 128 1.0" />
            </material>
        </visual>
        <collision>
            <origin xyz="0.0 0.0 0.0" rpy="0 0 0" />
            <geometry>
                <sphere radius=".01" />
            </geometry>
        </collision>
  

 

    </link>
    
    <joint name="roll-x" type="prismatic">
        <parent link="ground" />
        <child link="link1" />
        <!-- <origin xyz="-1.18 -0.525 0.195" rpy="0.0 0.000000 -0.000000" /> >-->
	<origin xyz="0.525 0.2  0.7  " rpy="0.0 0.000000 -0.000000" />
        <axis xyz="1 0 0" />
        <limit lower="-100" upper="100" effort="100000000" velocity="100000" />
    </joint>
    <joint name="roll-y" type="prismatic">
        <parent link="link1" />
        <child link="link2" />
        <origin xyz="0.000000 0.000000 0.000000" rpy=" 0.000000 0.0 -0.000000" />
        <axis xyz="0 1 0" />
        <limit lower="-100" upper="100" effort="100000000" velocity="100000" />
    </joint>
    <joint name="roll-z" type="prismatic">
        <parent link="link2" />
        <child link="link3" />
        <origin xyz="0 0 0" rpy=" 0.000000 -0.000000 0.0" />
        <axis xyz="0 0 1" />
        <limit lower="-100" upper="100" effort="100000000" velocity="100000" />
    </joint>

</robot>

